[
    { 
        "id" : "1",
        "usuario" : "Esteban Linares",
        "fecha" : "2022-12-15",
        "productos" : "Chocolatinas Jet",
        "cantidad" : 3
    },        
    {
        "id"  : "2",
        "usuario" : "Santiago Perez",
        "fecha" : "2022-10-15",
        "productos" : "Trululu",
        "cantidad" : 3
        
    },
    {
        "id" : "3",
        "usuario" : "Camilo Bejarano",
        "fecha" : "2021-10-15",
        "productos" : "Pasteles Bimbo",
        "cantidad" : 5
        
    },
    {
        "id"  : "4",
        "usuario" : "Dorothy Castaño",
        "fecha" : "2022-10-15",
        "productos" : "Chocolates Ferrero Roche",
        "cantidad" : 30
        
    },
    {
        "id"  : "5",
        "usuario" : "Santiago Perez",
        "fecha" : "2022-10-15",
        "productos" : "Chocorramo",
        "cantidad" : 15
        
    }
]