[
    {
     "id" : "1",
     "nombre" : "Administrador",
     "descripcion" :  "Administrar la base de datos",
     "activo" : true
    },
    {
    "id" : "2",
    "nombre" : "Desarrollador",
    "descripcion" :  "Soluciona las aplicaciones implemnentadas, acceso a las bd",
    "activo" : true
    },
    {
    "id" : "3",
    "nombre" : "Cliente",
    "descripcion" :  "Compra los productos a través del carrito",
    "activo" : true
    }
]